…
``` r
library(p8105.datasets)
data(brfss_smart2010)

brfss_smart2010 = janitor::clean_names(brfss_smart2010) %>% 
  rename(resp_id = respid, state = locationabbr, location = locationdesc) %>% 
  filter(topic == "Overall Health", 
         response %in% c("Excellent","Very good","Good","Fair","Poor"))


mutate(brfss_smart2010,response = as.factor(response)) %>% 
  mutate(response = forcats::fct_relevel(response, c("Excellent", "Very good", "Good", "Fair", "Poor")))
```

    ## # A tibble: 10,625 x 23
    ##     year state location class topic question response sample_size
    ##    <int> <chr> <chr>    <chr> <chr> <chr>    <fct>          <int>
    ##  1  2010 AL    AL - Je… Heal… Over… How is … Excelle…          94
    ##  2  2010 AL    AL - Je… Heal… Over… How is … Very go…         148
    ##  3  2010 AL    AL - Je… Heal… Over… How is … Good             208
    ##  4  2010 AL    AL - Je… Heal… Over… How is … Fair             107
    ##  5  2010 AL    AL - Je… Heal… Over… How is … Poor              45
    ##  6  2010 AL    AL - Mo… Heal… Over… How is … Excelle…          91
    ##  7  2010 AL    AL - Mo… Heal… Over… How is … Very go…         177
    ##  8  2010 AL    AL - Mo… Heal… Over… How is … Good             224
    ##  9  2010 AL    AL - Mo… Heal… Over… How is … Fair             120
    ## 10  2010 AL    AL - Mo… Heal… Over… How is … Poor              66
    ## # ... with 10,615 more rows, and 15 more variables: data_value <dbl>,
    ## #   confidence_limit_low <dbl>, confidence_limit_high <dbl>,
    ## #   display_order <int>, data_value_unit <chr>, data_value_type <chr>,
    ## #   data_value_footnote_symbol <chr>, data_value_footnote <chr>,
    ## #   data_source <chr>, class_id <chr>, topic_id <chr>, location_id <chr>,
    ## #   question_id <chr>, resp_id <chr>, geo_location <chr>
…
The instacart dataset has 1384617 observations and 15 variables. It contains online grocery orders information, such as the time, order id, user id, pruduct information (alsie, pruduct name, apartment) and so on.

### How many aisles are there, and which aisles are the most items ordered from?

``` r
insta %>% 
  count(aisle) %>% 
  arrange(desc(n))
```

    ## # A tibble: 134 x 2
    ##    aisle                              n
    ##    <chr>                          <int>
    ##  1 fresh vegetables              150609
    ##  2 fresh fruits                  150473
    ##  3 packaged vegetables fruits     78493
    ##  4 yogurt                         55240
    ##  5 packaged cheese                41699
    ##  6 water seltzer sparkling water  36617
    ##  7 milk                           32644
    ##  8 chips pretzels                 31269
    ##  9 soy lactosefree                26240
    ## 10 bread                          23635
    ## # ... with 124 more rows
…
noaa %>% 
  count(snow) %>% 
  arrange(desc(n))
```

    ## # A tibble: 282 x 2
    ##     snow       n
    ##    <dbl>   <int>
    ##  1   0   2008508
    ##  2  NA    381221
    ##  3   2.5   31022
    ##  4   1.3   23095
    ##  5   5.1   18274
    ##  6   7.6   10173
    ##  7   0.8    9962
    ##  8   0.5    9748
    ##  9   3.8    9197
    ## 10   0.3    8790
    ## # ... with 272 more rows
…
